18 527 28 47
82 527 28 47
146 527 27 48
210 528 26 48
274 527 28 48
338 527 28 47
402 527 27 48
466 528 26 48
530 527 28 48

18 653 28 49
82 653 28 49
147 653 27 50
212 654 25 49
274 653 28 50
338 653 28 49
402 653 27 50
467 654 25 49
530 653 28 50

23 590 20 48
85 591 21 47
151 591 19 46
215 590 21 47
277 590 25 48
340 591 27 47
406 591 24 47
471 590 21 48
535 590 19 48

21 718 22 48
86 719 21 47
150 719 20 46
212 718 22 47
274 718 25 48
337 719 27 47
402 719 24 47
468 718 22 48
534 718 20 48

18 783 28 47
81 783 25 47
144 783 25 47
203 782 33 48
276 782 42 48
340 782 43 48

18 909 28 49
82 911 25 47
145 910 26 48
212 909 24 49
277 909 35 49
340 909 38 49

8 846 35 48
82 848 25 46
149 847 23 47
204 846 32 48
258 846 42 48
321 846 43 48

21 947 35 48
85 976 25 46
149 975 24 47
212 974 32 48
276 974 42 48
340 974 43 48

18 1294 28 49
84 1294 27 48
148 1302 27 40
212 1306 27 36
276 1312 29 29
337 1308 34 36